…
解答
----

``` r
library(readr)
library(dplyr)
education_Level<-read_csv("http://data.moi.gov.tw/MoiOD/System/DownloadFile.aspx?DATA=7DD5CC42-4EFA-4AFD-9004-AF576CB2B337",skip = 1)
demographic_Data<-read_csv("http://data.moi.gov.tw/MoiOD/System/DownloadFile.aspx?DATA=46D0FA91-0159-47B9-BA49-D158F5FD4443",skip = 1)
#View(opendata10612M010)
combined_data<-inner_join(education_Level,demographic_Data,by=c("區域別","村里名稱" = "村里"))
combined_data$birth_rate <- combined_data$出生數/combined_data$總計
combined_data[order(combined_data$birth_rate, decreasing = T),]
```

    ## # A tibble: 7,851 x 61
    ##    統計年 區域別代碼 區域別 村里名稱  總計 博畢_男 博畢_女 博肄_男 博肄_女
    ##     <int>      <dbl> <chr>  <chr>    <int>   <int>   <int>   <int>   <int>
    ##  1    106    1.00e10 澎湖縣白沙~ 城前村     111       0       0       1       0
    ##  2    106    1.00e10 臺東縣海端~ 霧鹿村     275       0       0       0       0
    ##  3    106    6.80e10 桃園市復興~ 奎輝里     696       0       0       1       0
    ##  4    106    1.00e10 宜蘭縣南澳~ 金岳村     427       0       0       0       0
    ##  5    106    1.00e10 澎湖縣馬公~ 桶盤里     297       0       0       0       0
    ##  6    106    1.00e10 南投縣信義~ 雙龍村     641       0       0       0       0
    ##  7    106    1.00e10 澎湖縣白沙~ 小赤村     166       0       1       1       0
    ##  8    106    1.00e10 花蓮縣萬榮~ 明利村     686       0       0       0       0
    ##  9    106    1.00e10 宜蘭縣大同~ 英士村     344       0       0       0       0
    ## 10    106    1.00e10 雲林縣四湖~ 三姓村     373       1       0       0       0
    ## # ... with 7,841 more rows, and 52 more variables: 碩畢_男 <int>,
    ## #   碩畢_女 <int>, 碩肄_男 <int>, 碩肄_女 <int>, 大畢_男 <int>,
    ## #   大畢_女 <int>, 大肄_男 <int>, 大肄_女 <int>, 二畢_男 <int>,
    ## #   二畢_女 <int>, 二肄_男 <int>, 二肄_女 <int>, 後二畢_男 <int>,
    ## #   後二畢_女 <int>, 後二肄_男 <int>, 後二肄_女 <int>, 高畢_男 <int>,
    ## #   高畢_女 <int>, 高肄_男 <int>, 高肄_女 <int>, 職畢_男 <int>,
    ## #   職畢_女 <int>, 職肄_男 <int>, 職肄_女 <int>, 前三肄_男 <int>,
    ## #   前三肄_女 <int>, 國畢_男 <int>, 國畢_女 <int>, 國肄_男 <int>,
    ## #   國肄_女 <int>, 初畢_男 <int>, 初畢_女 <int>, 初肄_男 <int>,
…
``` r
library(readr)
library(tidyr)

opendata107Y050 <- read_csv("D:/download/opendata107Y050.csv")
opendata107Y050 <- opendata107Y050[-1, ]
opendata107Y050 <- opendata107Y050[,-5]
opendata107Y050 <- gather(opendata107Y050, key="Type", value = "Value", -statistic_yyy,
                     -district_code, -site_id, -village)
opendata107Y050
```

    ## # A tibble: 31,288,320 x 6
    ##    statistic_yyy district_code site_id      village Type           Value
    ##    <chr>         <chr>         <chr>        <chr>   <chr>          <chr>
    ##  1 107           65000010001   新北市板橋區 留侯里  marital_status 未婚 
    ##  2 107           65000010001   新北市板橋區 留侯里  marital_status 未婚 
    ##  3 107           65000010001   新北市板橋區 留侯里  marital_status 未婚 
    ##  4 107           65000010001   新北市板橋區 留侯里  marital_status 未婚 
    ##  5 107           65000010001   新北市板橋區 留侯里  marital_status 未婚 
    ##  6 107           65000010001   新北市板橋區 留侯里  marital_status 未婚 
    ##  7 107           65000010001   新北市板橋區 留侯里  marital_status 未婚 
    ##  8 107           65000010001   新北市板橋區 留侯里  marital_status 未婚 
    ##  9 107           65000010001   新北市板橋區 留侯里  marital_status 未婚 
    ## 10 107           65000010001   新北市板橋區 留侯里  marital_status 未婚 
    ## # ... with 31,288,310 more rows
…
